<svg xmlns="http://www.w3.org/2000/svg" width="55" height="17" viewBox="0 0 55 17">
  <text fill="#FFF" fill-rule="evenodd" font-family="Helvetica-Bold, Helvetica" font-size="13.781" font-weight="bold" transform="translate(-683.5 -1095.5)">
    <tspan x="684.06" y="1109">AL fateh</tspan>
  </text>
</svg>
