<svg xmlns="http://www.w3.org/2000/svg" width="68" height="17" viewBox="0 0 68 17">
  <text fill="#FFF" fill-rule="evenodd" font-family="Helvetica-Bold, Helvetica" font-size="13.781" font-weight="bold" transform="translate(-28.5 -67.5)">
    <tspan x="29.308" y="81">Al Shabab</tspan>
  </text>
</svg>
