<svg xmlns="http://www.w3.org/2000/svg" width="9" height="12" viewBox="0 0 9 12">
  <defs>
    <linearGradient id="location_icon3-a" x1="0%" x2="70.942%" y1="105.856%" y2="5.809%">
      <stop offset="0%" stop-color="#A21F61"/>
      <stop offset="100%" stop-color="#EB3031"/>
    </linearGradient>
  </defs>
  <path fill="url(#location_icon3-a)" fill-rule="evenodd" d="M4.57908705,26.5617101 C2.52313727,26.5617101 0.850318471,28.1628069 0.850318471,30.1316026 C0.850318471,32.0254305 4.23976911,36.9621456 4.38472499,37.1709843 C4.42760583,37.2330112 4.50078291,37.2713875 4.57908705,37.2713875 C4.65739119,37.2713875 4.73010218,37.2334574 4.77344911,37.1709843 C4.91793889,36.9621456 8.30785563,32.0254305 8.30785563,30.1316026 C8.30785563,28.1632531 6.63503682,26.5617101 4.57908705,26.5617101 L4.57908705,26.5617101 Z M4.57908705,31.6934305 C3.67952163,31.6934305 2.9477508,30.9923929 2.9477508,30.1316026 C2.9477508,29.2708123 3.67952163,28.5697746 4.57908705,28.5697746 C5.47865247,28.5697746 6.2104233,29.2708123 6.2104233,30.1316026 C6.2104233,30.9923929 5.47865247,31.6934305 4.57908705,31.6934305 L4.57908705,31.6934305 Z" transform="translate(0 -26)"/>
</svg>
