<svg xmlns="http://www.w3.org/2000/svg" width="145" height="32" viewBox="0 0 145 32">
  <text fill="#FFF" fill-rule="evenodd" font-family=".SFNSDisplay, .SF NS Display" font-size="24" transform="translate(9 -.5)">
    <tspan x="1" y="23">Srimpr Etvts</tspan>
  </text>
</svg>
